%YAML 1.1
%TAG !u! tag:unity3d.com,2011:
--- !u!1 &4854438932778312157
GameObject:
  m_ObjectHideFlags: 0
  m_CorrespondingSourceObject: {fileID: 0}
  m_PrefabInstance: {fileID: 0}
  m_PrefabAsset: {fileID: 0}
  serializedVersion: 6
  m_Component:
  - component: {fileID: 4854438932778312158}
  m_Layer: 0
  m_Name: Fire Point
  m_TagString: Untagged
  m_Icon: {fileID: 0}
  m_NavMeshLayer: 0
  m_StaticEditorFlags: 0
  m_IsActive: 1
--- !u!4 &4854438932778312158
Transform:
  m_ObjectHideFlags: 0
  m_CorrespondingSourceObject: {fileID: 0}
  m_PrefabInstance: {fileID: 0}
  m_PrefabAsset: {fileID: 0}
  m_GameObject: {fileID: 4854438932778312157}
  m_LocalRotation: {x: 0, y: 0, z: 0, w: 1}
  m_LocalPosition: {x: 0.11, y: -0.2, z: 1.2}
  m_LocalScale: {x: 1, y: 1, z: 1}
  m_Children: []
  m_Father: {fileID: 4854438933476946141}
  m_RootOrder: 1
  m_LocalEulerAnglesHint: {x: 0, y: 0, z: 0}
--- !u!1 &4854438933242885410
GameObject:
  m_ObjectHideFlags: 0
  m_CorrespondingSourceObject: {fileID: 0}
  m_PrefabInstance: {fileID: 0}
  m_PrefabAsset: {fileID: 0}
  serializedVersion: 6
  m_Component:
  - component: {fileID: 4854438933242885411}
  m_Layer: 0
  m_Name: Model
  m_TagString: Untagged
  m_Icon: {fileID: 0}
  m_NavMeshLayer: 0
  m_StaticEditorFlags: 0
  m_IsActive: 1
--- !u!4 &4854438933242885411
Transform:
  m_ObjectHideFlags: 0
  m_CorrespondingSourceObject: {fileID: 0}
  m_PrefabInstance: {fileID: 0}
  m_PrefabAsset: {fileID: 0}
  m_GameObject: {fileID: 4854438933242885410}
  m_LocalRotation: {x: 0, y: 0, z: 0, w: 1}
  m_LocalPosition: {x: 0, y: -1, z: 0}
  m_LocalScale: {x: 1, y: 1, z: 1}
  m_Children:
  - {fileID: 4854438933132774617}
  m_Father: {fileID: 4854438933476946141}
  m_RootOrder: 2
  m_LocalEulerAnglesHint: {x: 0, y: 0, z: 0}
--- !u!1 &4854438933408096914
GameObject:
  m_ObjectHideFlags: 0
  m_CorrespondingSourceObject: {fileID: 0}
  m_PrefabInstance: {fileID: 0}
  m_PrefabAsset: {fileID: 0}
  serializedVersion: 6
  m_Component:
  - component: {fileID: 4854438933408096915}
  - component: {fileID: 4854438933408096917}
  - component: {fileID: 4854438933408096916}
  m_Layer: 0
  m_Name: Cube
  m_TagString: Untagged
  m_Icon: {fileID: 0}
  m_NavMeshLayer: 0
  m_StaticEditorFlags: 0
  m_IsActive: 0
--- !u!4 &4854438933408096915
Transform:
  m_ObjectHideFlags: 0
  m_CorrespondingSourceObject: {fileID: 0}
  m_PrefabInstance: {fileID: 0}
  m_PrefabAsset: {fileID: 0}
  m_GameObject: {fileID: 4854438933408096914}
  m_LocalRotation: {x: 0, y: 0, z: 0, w: 1}
  m_LocalPosition: {x: 0.16, y: 0.19, z: 0.63}
  m_LocalScale: {x: 0.2, y: 0.2, z: 1}
  m_Children: []
  m_Father: {fileID: 4854438933476946141}
  m_RootOrder: 0
  m_LocalEulerAnglesHint: {x: 0, y: 0, z: 0}
--- !u!33 &4854438933408096917
MeshFilter:
  m_ObjectHideFlags: 0
  m_CorrespondingSourceObject: {fileID: 0}
  m_PrefabInstance: {fileID: 0}
  m_PrefabAsset: {fileID: 0}
  m_GameObject: {fileID: 4854438933408096914}
  m_Mesh: {fileID: 10202, guid: 0000000000000000e000000000000000, type: 0}
--- !u!23 &4854438933408096916
MeshRenderer:
  m_ObjectHideFlags: 0
  m_CorrespondingSourceObject: {fileID: 0}
  m_PrefabInstance: {fileID: 0}
  m_PrefabAsset: {fileID: 0}
  m_GameObject: {fileID: 4854438933408096914}
  m_Enabled: 1
  m_CastShadows: 1
  m_ReceiveShadows: 1
  m_DynamicOccludee: 1
  m_MotionVectors: 1
  m_LightProbeUsage: 1
  m_ReflectionProbeUsage: 1
  m_RayTracingMode: 2
  m_RayTraceProcedural: 0
  m_RenderingLayerMask: 1
  m_RendererPriority: 0
  m_Materials:
  - {fileID: 2100000, guid: 7b2d12c8acf71a242abcd51720fac334, type: 2}
  m_StaticBatchInfo:
    firstSubMesh: 0
    subMeshCount: 0
  m_StaticBatchRoot: {fileID: 0}
  m_ProbeAnchor: {fileID: 0}
  m_LightProbeVolumeOverride: {fileID: 0}
  m_ScaleInLightmap: 1
  m_ReceiveGI: 1
  m_PreserveUVs: 0
  m_IgnoreNormalsForChartDetection: 0
  m_ImportantGI: 0
  m_StitchLightmapSeams: 1
  m_SelectedEditorRenderState: 3
  m_MinimumChartSize: 4
  m_AutoUVMaxDistance: 0.5
  m_AutoUVMaxAngle: 89
  m_LightmapParameters: {fileID: 0}
  m_SortingLayerID: 0
  m_SortingLayer: 0
  m_SortingOrder: 0
  m_AdditionalVertexStreams: {fileID: 0}
--- !u!1 &4854438933476946137
GameObject:
  m_ObjectHideFlags: 0
  m_CorrespondingSourceObject: {fileID: 0}
  m_PrefabInstance: {fileID: 0}
  m_PrefabAsset: {fileID: 0}
  serializedVersion: 6
  m_Component:
  - component: {fileID: 4854438933476946141}
  - component: {fileID: 4854438933476946138}
  - component: {fileID: 4854438933476946142}
  - component: {fileID: 4854438933476946112}
  - component: {fileID: 4854438933476946113}
  m_Layer: 0
  m_Name: Enemy
  m_TagString: Enemy
  m_Icon: {fileID: 0}
  m_NavMeshLayer: 0
  m_StaticEditorFlags: 0
  m_IsActive: 1
--- !u!4 &4854438933476946141
Transform:
  m_ObjectHideFlags: 0
  m_CorrespondingSourceObject: {fileID: 0}
  m_PrefabInstance: {fileID: 0}
  m_PrefabAsset: {fileID: 0}
  m_GameObject: {fileID: 4854438933476946137}
  m_LocalRotation: {x: 0, y: 0, z: 0, w: 1}
  m_LocalPosition: {x: 0, y: 1.59, z: 15}
  m_LocalScale: {x: 1, y: 1, z: 1}
  m_Children:
  - {fileID: 4854438933408096915}
  - {fileID: 4854438932778312158}
  - {fileID: 4854438933242885411}
  - {fileID: 4854438933555478828}
  m_Father: {fileID: 0}
  m_RootOrder: 0
  m_LocalEulerAnglesHint: {x: 0, y: 0, z: 0}
--- !u!136 &4854438933476946138
CapsuleCollider:
  m_ObjectHideFlags: 0
  m_CorrespondingSourceObject: {fileID: 0}
  m_PrefabInstance: {fileID: 0}
  m_PrefabAsset: {fileID: 0}
  m_GameObject: {fileID: 4854438933476946137}
  m_Material: {fileID: 0}
  m_IsTrigger: 0
  m_Enabled: 1
  m_Radius: 0.34164906
  m_Height: 1.313646
  m_Direction: 1
  m_Center: {x: 0, y: -0.34317702, z: 0.00012493134}
--- !u!114 &4854438933476946142
MonoBehaviour:
  m_ObjectHideFlags: 0
  m_CorrespondingSourceObject: {fileID: 0}
  m_PrefabInstance: {fileID: 0}
  m_PrefabAsset: {fileID: 0}
  m_GameObject: {fileID: 4854438933476946137}
  m_Enabled: 1
  m_EditorHideFlags: 0
  m_Script: {fileID: 11500000, guid: 973c614053ac1f342af77bbf7d399a5e, type: 3}
  m_Name: 
  m_EditorClassIdentifier: 
  currentHealth: 5
  theEC: {fileID: 4854438933476946112}
--- !u!114 &4854438933476946112
MonoBehaviour:
  m_ObjectHideFlags: 0
  m_CorrespondingSourceObject: {fileID: 0}
  m_PrefabInstance: {fileID: 0}
  m_PrefabAsset: {fileID: 0}
  m_GameObject: {fileID: 4854438933476946137}
  m_Enabled: 1
  m_EditorHideFlags: 0
  m_Script: {fileID: 11500000, guid: f6ae4d90fe79b984a8b8302e4cc87c6c, type: 3}
  m_Name: 
  m_EditorClassIdentifier: 
  distanceToChase: 10
  distanceToLose: 15
  distanceToStop: 2
  agent: {fileID: 0}
  keepChasingTime: 5
  bullet: {fileID: 404864904174808705, guid: 4255eff63ac8437409f65f28b3500193, type: 3}
  firePoint: {fileID: 4854438932778312158}
  fireRate: 0.3
  waitBetweenShots: 2
  timeToShoot: 1
  anim: {fileID: 4854438933139972921}
--- !u!195 &4854438933476946113
NavMeshAgent:
  m_ObjectHideFlags: 0
  m_CorrespondingSourceObject: {fileID: 0}
  m_PrefabInstance: {fileID: 0}
  m_PrefabAsset: {fileID: 0}
  m_GameObject: {fileID: 4854438933476946137}
  m_Enabled: 1
  m_AgentTypeID: 0
  m_Radius: 0.5
  m_Speed: 7.5
  m_Acceleration: 8
  avoidancePriority: 50
  m_AngularSpeed: 600
  m_StoppingDistance: 0
  m_AutoTraverseOffMeshLink: 1
  m_AutoBraking: 1
  m_AutoRepath: 1
  m_Height: 2
  m_BaseOffset: 1
  m_WalkableMask: 4294967295
  m_ObstacleAvoidanceType: 4
--- !u!1 &4854438933555478827
GameObject:
  m_ObjectHideFlags: 0
  m_CorrespondingSourceObject: {fileID: 0}
  m_PrefabInstance: {fileID: 0}
  m_PrefabAsset: {fileID: 0}
  serializedVersion: 6
  m_Component:
  - component: {fileID: 4854438933555478828}
  - component: {fileID: 4854438933555478830}
  m_Layer: 0
  m_Name: HeadColider
  m_TagString: HeadShot
  m_Icon: {fileID: 0}
  m_NavMeshLayer: 0
  m_StaticEditorFlags: 0
  m_IsActive: 1
--- !u!4 &4854438933555478828
Transform:
  m_ObjectHideFlags: 0
  m_CorrespondingSourceObject: {fileID: 0}
  m_PrefabInstance: {fileID: 0}
  m_PrefabAsset: {fileID: 0}
  m_GameObject: {fileID: 4854438933555478827}
  m_LocalRotation: {x: 0, y: 0, z: 0, w: 1}
  m_LocalPosition: {x: 0, y: 0.63, z: 0}
  m_LocalScale: {x: 1, y: 1, z: 1}
  m_Children: []
  m_Father: {fileID: 4854438933476946141}
  m_RootOrder: 3
  m_LocalEulerAnglesHint: {x: 0, y: 0, z: 0}
--- !u!135 &4854438933555478830
SphereCollider:
  m_ObjectHideFlags: 0
  m_CorrespondingSourceObject: {fileID: 0}
  m_PrefabInstance: {fileID: 0}
  m_PrefabAsset: {fileID: 0}
  m_GameObject: {fileID: 4854438933555478827}
  m_Material: {fileID: 0}
  m_IsTrigger: 1
  m_Enabled: 1
  serializedVersion: 2
  m_Radius: 0.25
  m_Center: {x: 0, y: 0, z: 0}
--- !u!1001 &4854438933132645977
PrefabInstance:
  m_ObjectHideFlags: 0
  serializedVersion: 2
  m_Modification:
    m_TransformParent: {fileID: 4854438933242885411}
    m_Modifications:
    - target: {fileID: 100000, guid: e4299bf26a09e9049839e1a1b75e562c, type: 3}
      propertyPath: m_Name
      value: characterMedium
      objectReference: {fileID: 0}
    - target: {fileID: 400000, guid: e4299bf26a09e9049839e1a1b75e562c, type: 3}
      propertyPath: m_LocalPosition.x
      value: 0
      objectReference: {fileID: 0}
    - target: {fileID: 400000, guid: e4299bf26a09e9049839e1a1b75e562c, type: 3}
      propertyPath: m_LocalPosition.y
      value: 0
      objectReference: {fileID: 0}
    - target: {fileID: 400000, guid: e4299bf26a09e9049839e1a1b75e562c, type: 3}
      propertyPath: m_LocalPosition.z
      value: 0
      objectReference: {fileID: 0}
    - target: {fileID: 400000, guid: e4299bf26a09e9049839e1a1b75e562c, type: 3}
      propertyPath: m_LocalRotation.x
      value: -0
      objectReference: {fileID: 0}
    - target: {fileID: 400000, guid: e4299bf26a09e9049839e1a1b75e562c, type: 3}
      propertyPath: m_LocalRotation.y
      value: -0
      objectReference: {fileID: 0}
    - target: {fileID: 400000, guid: e4299bf26a09e9049839e1a1b75e562c, type: 3}
      propertyPath: m_LocalRotation.z
      value: -0
      objectReference: {fileID: 0}
    - target: {fileID: 400000, guid: e4299bf26a09e9049839e1a1b75e562c, type: 3}
      propertyPath: m_LocalRotation.w
      value: 1
      objectReference: {fileID: 0}
    - target: {fileID: 400000, guid: e4299bf26a09e9049839e1a1b75e562c, type: 3}
      propertyPath: m_RootOrder
      value: 0
      objectReference: {fileID: 0}
    - target: {fileID: 400000, guid: e4299bf26a09e9049839e1a1b75e562c, type: 3}
      propertyPath: m_LocalEulerAnglesHint.x
      value: 0
      objectReference: {fileID: 0}
    - target: {fileID: 400000, guid: e4299bf26a09e9049839e1a1b75e562c, type: 3}
      propertyPath: m_LocalEulerAnglesHint.y
      value: 0
      objectReference: {fileID: 0}
    - target: {fileID: 400000, guid: e4299bf26a09e9049839e1a1b75e562c, type: 3}
      propertyPath: m_LocalEulerAnglesHint.z
      value: 0
      objectReference: {fileID: 0}
    - target: {fileID: 400000, guid: e4299bf26a09e9049839e1a1b75e562c, type: 3}
      propertyPath: m_LocalScale.y
      value: 0.5
      objectReference: {fileID: 0}
    - target: {fileID: 400000, guid: e4299bf26a09e9049839e1a1b75e562c, type: 3}
      propertyPath: m_LocalScale.z
      value: 0.5
      objectReference: {fileID: 0}
    - target: {fileID: 400000, guid: e4299bf26a09e9049839e1a1b75e562c, type: 3}
      propertyPath: m_LocalScale.x
      value: 0.5
      objectReference: {fileID: 0}
    - target: {fileID: 400004, guid: e4299bf26a09e9049839e1a1b75e562c, type: 3}
      propertyPath: m_LocalRotation.x
      value: 0.06234842
      objectReference: {fileID: 0}
    - target: {fileID: 400004, guid: e4299bf26a09e9049839e1a1b75e562c, type: 3}
      propertyPath: m_LocalRotation.y
      value: 0.0448529
      objectReference: {fileID: 0}
    - target: {fileID: 400004, guid: e4299bf26a09e9049839e1a1b75e562c, type: 3}
      propertyPath: m_LocalRotation.z
      value: 0.0028050237
      objectReference: {fileID: 0}
    - target: {fileID: 400004, guid: e4299bf26a09e9049839e1a1b75e562c, type: 3}
      propertyPath: m_LocalRotation.w
      value: 0.9970421
      objectReference: {fileID: 0}
    - target: {fileID: 400004, guid: e4299bf26a09e9049839e1a1b75e562c, type: 3}
      propertyPath: m_LocalPosition.x
      value: -2.0225881e-13
      objectReference: {fileID: 0}
    - target: {fileID: 400004, guid: e4299bf26a09e9049839e1a1b75e562c, type: 3}
      propertyPath: m_LocalPosition.y
      value: 0.0028704887
      objectReference: {fileID: 0}
    - target: {fileID: 400004, guid: e4299bf26a09e9049839e1a1b75e562c, type: 3}
      propertyPath: m_LocalPosition.z
      value: 3.72529e-10
      objectReference: {fileID: 0}
    - target: {fileID: 400006, guid: e4299bf26a09e9049839e1a1b75e562c, type: 3}
      propertyPath: m_LocalRotation.x
      value: -0.10883034
      objectReference: {fileID: 0}
    - target: {fileID: 400006, guid: e4299bf26a09e9049839e1a1b75e562c, type: 3}
      propertyPath: m_LocalRotation.y
      value: -0.04372925
      objectReference: {fileID: 0}
    - target: {fileID: 400006, guid: e4299bf26a09e9049839e1a1b75e562c, type: 3}
      propertyPath: m_LocalRotation.z
      value: 0.01036301
      objectReference: {fileID: 0}
    - target: {fileID: 400006, guid: e4299bf26a09e9049839e1a1b75e562c, type: 3}
      propertyPath: m_LocalRotation.w
      value: 0.99304396
      objectReference: {fileID: 0}
    - target: {fileID: 400006, guid: e4299bf26a09e9049839e1a1b75e562c, type: 3}
      propertyPath: m_LocalPosition.x
      value: -7.7257096e-14
      objectReference: {fileID: 0}
    - target: {fileID: 400006, guid: e4299bf26a09e9049839e1a1b75e562c, type: 3}
      propertyPath: m_LocalPosition.y
      value: 0.0027800922
      objectReference: {fileID: 0}
    - target: {fileID: 400006, guid: e4299bf26a09e9049839e1a1b75e562c, type: 3}
      propertyPath: m_LocalPosition.z
      value: -1.1175871e-10
      objectReference: {fileID: 0}
    - target: {fileID: 400010, guid: e4299bf26a09e9049839e1a1b75e562c, type: 3}
      propertyPath: m_LocalRotation.x
      value: 0.028479327
      objectReference: {fileID: 0}
    - target: {fileID: 400010, guid: e4299bf26a09e9049839e1a1b75e562c, type: 3}
      propertyPath: m_LocalRotation.y
      value: -0.027720012
      objectReference: {fileID: 0}
    - target: {fileID: 400010, guid: e4299bf26a09e9049839e1a1b75e562c, type: 3}
      propertyPath: m_LocalRotation.z
      value: 0.99920976
      objectReference: {fileID: 0}
    - target: {fileID: 400010, guid: e4299bf26a09e9049839e1a1b75e562c, type: 3}
      propertyPath: m_LocalRotation.w
      value: -0.00065181137
      objectReference: {fileID: 0}
    - target: {fileID: 400010, guid: e4299bf26a09e9049839e1a1b75e562c, type: 3}
      propertyPath: m_LocalPosition.x
      value: -0.000020474872
      objectReference: {fileID: 0}
    - target: {fileID: 400010, guid: e4299bf26a09e9049839e1a1b75e562c, type: 3}
      propertyPath: m_LocalPosition.y
      value: 0.0040406217
      objectReference: {fileID: 0}
    - target: {fileID: 400010, guid: e4299bf26a09e9049839e1a1b75e562c, type: 3}
      propertyPath: m_LocalPosition.z
      value: -0.0005774518
      objectReference: {fileID: 0}
    - target: {fileID: 400012, guid: e4299bf26a09e9049839e1a1b75e562c, type: 3}
      propertyPath: m_LocalRotation.x
      value: -0.00095465645
      objectReference: {fileID: 0}
    - target: {fileID: 400012, guid: e4299bf26a09e9049839e1a1b75e562c, type: 3}
      propertyPath: m_LocalRotation.w
      value: -0.0010862001
      objectReference: {fileID: 0}
    - target: {fileID: 400012, guid: e4299bf26a09e9049839e1a1b75e562c, type: 3}
      propertyPath: m_LocalPosition.y
      value: -0.000312407
      objectReference: {fileID: 0}
    - target: {fileID: 400012, guid: e4299bf26a09e9049839e1a1b75e562c, type: 3}
      propertyPath: m_LocalPosition.z
      value: 0.01564172
      objectReference: {fileID: 0}
    - target: {fileID: 400014, guid: e4299bf26a09e9049839e1a1b75e562c, type: 3}
      propertyPath: m_LocalRotation.x
      value: -0.33080035
      objectReference: {fileID: 0}
    - target: {fileID: 400014, guid: e4299bf26a09e9049839e1a1b75e562c, type: 3}
      propertyPath: m_LocalRotation.y
      value: -0.7366198
      objectReference: {fileID: 0}
    - target: {fileID: 400014, guid: e4299bf26a09e9049839e1a1b75e562c, type: 3}
      propertyPath: m_LocalRotation.z
      value: 0.278903
      objectReference: {fileID: 0}
    - target: {fileID: 400014, guid: e4299bf26a09e9049839e1a1b75e562c, type: 3}
      propertyPath: m_LocalRotation.w
      value: 0.5197841
      objectReference: {fileID: 0}
    - target: {fileID: 400014, guid: e4299bf26a09e9049839e1a1b75e562c, type: 3}
      propertyPath: m_LocalPosition.x
      value: 5.8672867e-10
      objectReference: {fileID: 0}
    - target: {fileID: 400014, guid: e4299bf26a09e9049839e1a1b75e562c, type: 3}
      propertyPath: m_LocalPosition.y
      value: 0.0025880155
      objectReference: {fileID: 0}
    - target: {fileID: 400014, guid: e4299bf26a09e9049839e1a1b75e562c, type: 3}
      propertyPath: m_LocalPosition.z
      value: -0.0000000021606688
      objectReference: {fileID: 0}
    - target: {fileID: 400016, guid: e4299bf26a09e9049839e1a1b75e562c, type: 3}
      propertyPath: m_LocalRotation.x
      value: -0.6565071
      objectReference: {fileID: 0}
    - target: {fileID: 400016, guid: e4299bf26a09e9049839e1a1b75e562c, type: 3}
      propertyPath: m_LocalRotation.y
      value: 0.17626141
      objectReference: {fileID: 0}
    - target: {fileID: 400016, guid: e4299bf26a09e9049839e1a1b75e562c, type: 3}
      propertyPath: m_LocalRotation.z
      value: 0.17375
      objectReference: {fileID: 0}
    - target: {fileID: 400016, guid: e4299bf26a09e9049839e1a1b75e562c, type: 3}
      propertyPath: m_LocalRotation.w
      value: 0.71255976
      objectReference: {fileID: 0}
    - target: {fileID: 400016, guid: e4299bf26a09e9049839e1a1b75e562c, type: 3}
      propertyPath: m_LocalPosition.x
      value: -3.0499045e-10
      objectReference: {fileID: 0}
    - target: {fileID: 400016, guid: e4299bf26a09e9049839e1a1b75e562c, type: 3}
      propertyPath: m_LocalPosition.y
      value: 0.0060881167
      objectReference: {fileID: 0}
    - target: {fileID: 400016, guid: e4299bf26a09e9049839e1a1b75e562c, type: 3}
      propertyPath: m_LocalPosition.z
      value: 0
      objectReference: {fileID: 0}
    - target: {fileID: 400028, guid: e4299bf26a09e9049839e1a1b75e562c, type: 3}
      propertyPath: m_LocalRotation.x
      value: 0.35825357
      objectReference: {fileID: 0}
    - target: {fileID: 400028, guid: e4299bf26a09e9049839e1a1b75e562c, type: 3}
      propertyPath: m_LocalRotation.y
      value: 0.0819567
      objectReference: {fileID: 0}
    - target: {fileID: 400028, guid: e4299bf26a09e9049839e1a1b75e562c, type: 3}
      propertyPath: m_LocalRotation.z
      value: -0.0062131714
      objectReference: {fileID: 0}
    - target: {fileID: 400028, guid: e4299bf26a09e9049839e1a1b75e562c, type: 3}
      propertyPath: m_LocalRotation.w
      value: 0.9299994
      objectReference: {fileID: 0}
    - target: {fileID: 400028, guid: e4299bf26a09e9049839e1a1b75e562c, type: 3}
      propertyPath: m_LocalPosition.x
      value: 0.000000003725259
      objectReference: {fileID: 0}
    - target: {fileID: 400028, guid: e4299bf26a09e9049839e1a1b75e562c, type: 3}
      propertyPath: m_LocalPosition.y
      value: 0.004707751
      objectReference: {fileID: 0}
    - target: {fileID: 400028, guid: e4299bf26a09e9049839e1a1b75e562c, type: 3}
      propertyPath: m_LocalPosition.z
      value: 4.918514e-11
      objectReference: {fileID: 0}
    - target: {fileID: 400030, guid: e4299bf26a09e9049839e1a1b75e562c, type: 3}
      propertyPath: m_LocalRotation.x
      value: -0.02414187
      objectReference: {fileID: 0}
    - target: {fileID: 400030, guid: e4299bf26a09e9049839e1a1b75e562c, type: 3}
      propertyPath: m_LocalRotation.y
      value: -0.6502277
      objectReference: {fileID: 0}
    - target: {fileID: 400030, guid: e4299bf26a09e9049839e1a1b75e562c, type: 3}
      propertyPath: m_LocalRotation.z
      value: 0.024052568
      objectReference: {fileID: 0}
    - target: {fileID: 400030, guid: e4299bf26a09e9049839e1a1b75e562c, type: 3}
      propertyPath: m_LocalRotation.w
      value: 0.7589747
      objectReference: {fileID: 0}
    - target: {fileID: 400030, guid: e4299bf26a09e9049839e1a1b75e562c, type: 3}
      propertyPath: m_LocalPosition.x
      value: 0.0000000037438856
      objectReference: {fileID: 0}
    - target: {fileID: 400030, guid: e4299bf26a09e9049839e1a1b75e562c, type: 3}
      propertyPath: m_LocalPosition.y
      value: 0.005272279
      objectReference: {fileID: 0}
    - target: {fileID: 400030, guid: e4299bf26a09e9049839e1a1b75e562c, type: 3}
      propertyPath: m_LocalPosition.z
      value: -1.3736914e-10
      objectReference: {fileID: 0}
    - target: {fileID: 400032, guid: e4299bf26a09e9049839e1a1b75e562c, type: 3}
      propertyPath: m_LocalRotation.x
      value: 0.0563876
      objectReference: {fileID: 0}
    - target: {fileID: 400032, guid: e4299bf26a09e9049839e1a1b75e562c, type: 3}
      propertyPath: m_LocalRotation.y
      value: 0.062343102
      objectReference: {fileID: 0}
    - target: {fileID: 400032, guid: e4299bf26a09e9049839e1a1b75e562c, type: 3}
      propertyPath: m_LocalRotation.z
      value: -0.0015959139
      objectReference: {fileID: 0}
    - target: {fileID: 400032, guid: e4299bf26a09e9049839e1a1b75e562c, type: 3}
      propertyPath: m_LocalRotation.w
      value: 0.99645936
      objectReference: {fileID: 0}
    - target: {fileID: 400032, guid: e4299bf26a09e9049839e1a1b75e562c, type: 3}
      propertyPath: m_LocalPosition.x
      value: 4.813734e-10
      objectReference: {fileID: 0}
    - target: {fileID: 400032, guid: e4299bf26a09e9049839e1a1b75e562c, type: 3}
      propertyPath: m_LocalPosition.y
      value: 0.0013859983
      objectReference: {fileID: 0}
    - target: {fileID: 400032, guid: e4299bf26a09e9049839e1a1b75e562c, type: 3}
      propertyPath: m_LocalPosition.z
      value: -0.0000000022817253
      objectReference: {fileID: 0}
    - target: {fileID: 400034, guid: e4299bf26a09e9049839e1a1b75e562c, type: 3}
      propertyPath: m_LocalRotation.x
      value: 0.77240855
      objectReference: {fileID: 0}
    - target: {fileID: 400034, guid: e4299bf26a09e9049839e1a1b75e562c, type: 3}
      propertyPath: m_LocalRotation.y
      value: -0.045088496
      objectReference: {fileID: 0}
    - target: {fileID: 400034, guid: e4299bf26a09e9049839e1a1b75e562c, type: 3}
      propertyPath: m_LocalRotation.z
      value: 0.00891554
      objectReference: {fileID: 0}
    - target: {fileID: 400034, guid: e4299bf26a09e9049839e1a1b75e562c, type: 3}
      propertyPath: m_LocalRotation.w
      value: 0.6334607
      objectReference: {fileID: 0}
    - target: {fileID: 400034, guid: e4299bf26a09e9049839e1a1b75e562c, type: 3}
      propertyPath: m_LocalPosition.x
      value: 5.8672844e-10
      objectReference: {fileID: 0}
    - target: {fileID: 400034, guid: e4299bf26a09e9049839e1a1b75e562c, type: 3}
      propertyPath: m_LocalPosition.y
      value: 0.0011282155
      objectReference: {fileID: 0}
    - target: {fileID: 400034, guid: e4299bf26a09e9049839e1a1b75e562c, type: 3}
      propertyPath: m_LocalPosition.z
      value: -9.313165e-11
      objectReference: {fileID: 0}
    - target: {fileID: 400036, guid: e4299bf26a09e9049839e1a1b75e562c, type: 3}
      propertyPath: m_LocalRotation.x
      value: 0.41097426
      objectReference: {fileID: 0}
    - target: {fileID: 400036, guid: e4299bf26a09e9049839e1a1b75e562c, type: 3}
      propertyPath: m_LocalRotation.y
      value: 0.025177922
      objectReference: {fileID: 0}
    - target: {fileID: 400036, guid: e4299bf26a09e9049839e1a1b75e562c, type: 3}
      propertyPath: m_LocalRotation.z
      value: -0.010740309
      objectReference: {fileID: 0}
    - target: {fileID: 400036, guid: e4299bf26a09e9049839e1a1b75e562c, type: 3}
      propertyPath: m_LocalRotation.w
      value: 0.9112359
      objectReference: {fileID: 0}
    - target: {fileID: 400036, guid: e4299bf26a09e9049839e1a1b75e562c, type: 3}
      propertyPath: m_LocalPosition.x
      value: 5.942954e-10
      objectReference: {fileID: 0}
    - target: {fileID: 400036, guid: e4299bf26a09e9049839e1a1b75e562c, type: 3}
      propertyPath: m_LocalPosition.y
      value: 0.001021306
      objectReference: {fileID: 0}
    - target: {fileID: 400036, guid: e4299bf26a09e9049839e1a1b75e562c, type: 3}
      propertyPath: m_LocalPosition.z
      value: -0.0000000021606545
      objectReference: {fileID: 0}
    - target: {fileID: 400040, guid: e4299bf26a09e9049839e1a1b75e562c, type: 3}
      propertyPath: m_LocalRotation.x
      value: -0.18538593
      objectReference: {fileID: 0}
    - target: {fileID: 400040, guid: e4299bf26a09e9049839e1a1b75e562c, type: 3}
      propertyPath: m_LocalRotation.y
      value: -0.65717447
      objectReference: {fileID: 0}
    - target: {fileID: 400040, guid: e4299bf26a09e9049839e1a1b75e562c, type: 3}
      propertyPath: m_LocalRotation.z
      value: -0.37994727
      objectReference: {fileID: 0}
    - target: {fileID: 400040, guid: e4299bf26a09e9049839e1a1b75e562c, type: 3}
      propertyPath: m_LocalRotation.w
      value: 0.6240143
      objectReference: {fileID: 0}
    - target: {fileID: 400040, guid: e4299bf26a09e9049839e1a1b75e562c, type: 3}
      propertyPath: m_LocalPosition.x
      value: 0.00065148395
      objectReference: {fileID: 0}
    - target: {fileID: 400040, guid: e4299bf26a09e9049839e1a1b75e562c, type: 3}
      propertyPath: m_LocalPosition.y
      value: 0.0005098112
      objectReference: {fileID: 0}
    - target: {fileID: 400040, guid: e4299bf26a09e9049839e1a1b75e562c, type: 3}
      propertyPath: m_LocalPosition.z
      value: 0.000024452605
      objectReference: {fileID: 0}
    - target: {fileID: 400042, guid: e4299bf26a09e9049839e1a1b75e562c, type: 3}
      propertyPath: m_LocalRotation.x
      value: 0.6676192
      objectReference: {fileID: 0}
    - target: {fileID: 400042, guid: e4299bf26a09e9049839e1a1b75e562c, type: 3}
      propertyPath: m_LocalRotation.y
      value: 0.025390102
      objectReference: {fileID: 0}
    - target: {fileID: 400042, guid: e4299bf26a09e9049839e1a1b75e562c, type: 3}
      propertyPath: m_LocalRotation.z
      value: -0.040663064
      objectReference: {fileID: 0}
    - target: {fileID: 400042, guid: e4299bf26a09e9049839e1a1b75e562c, type: 3}
      propertyPath: m_LocalRotation.w
      value: 0.74295795
      objectReference: {fileID: 0}
    - target: {fileID: 400042, guid: e4299bf26a09e9049839e1a1b75e562c, type: 3}
      propertyPath: m_LocalPosition.x
      value: -3.0733394e-10
      objectReference: {fileID: 0}
    - target: {fileID: 400042, guid: e4299bf26a09e9049839e1a1b75e562c, type: 3}
      propertyPath: m_LocalPosition.y
      value: 0.0010586786
      objectReference: {fileID: 0}
    - target: {fileID: 400042, guid: e4299bf26a09e9049839e1a1b75e562c, type: 3}
      propertyPath: m_LocalPosition.z
      value: -0.0000000017881274
      objectReference: {fileID: 0}
    - target: {fileID: 400052, guid: e4299bf26a09e9049839e1a1b75e562c, type: 3}
      propertyPath: m_LocalRotation.x
      value: 0.33131543
      objectReference: {fileID: 0}
    - target: {fileID: 400052, guid: e4299bf26a09e9049839e1a1b75e562c, type: 3}
      propertyPath: m_LocalRotation.y
      value: 0.015301078
      objectReference: {fileID: 0}
    - target: {fileID: 400052, guid: e4299bf26a09e9049839e1a1b75e562c, type: 3}
      propertyPath: m_LocalRotation.z
      value: -0.16297883
      objectReference: {fileID: 0}
    - target: {fileID: 400052, guid: e4299bf26a09e9049839e1a1b75e562c, type: 3}
      propertyPath: m_LocalRotation.w
      value: 0.9292115
      objectReference: {fileID: 0}
    - target: {fileID: 400052, guid: e4299bf26a09e9049839e1a1b75e562c, type: 3}
      propertyPath: m_LocalPosition.x
      value: -1.1000603e-10
      objectReference: {fileID: 0}
    - target: {fileID: 400052, guid: e4299bf26a09e9049839e1a1b75e562c, type: 3}
      propertyPath: m_LocalPosition.y
      value: 0.0052617425
      objectReference: {fileID: 0}
    - target: {fileID: 400052, guid: e4299bf26a09e9049839e1a1b75e562c, type: 3}
      propertyPath: m_LocalPosition.z
      value: -4.6566115e-12
      objectReference: {fileID: 0}
    - target: {fileID: 400054, guid: e4299bf26a09e9049839e1a1b75e562c, type: 3}
      propertyPath: m_LocalRotation.x
      value: 0.5982724
      objectReference: {fileID: 0}
    - target: {fileID: 400054, guid: e4299bf26a09e9049839e1a1b75e562c, type: 3}
      propertyPath: m_LocalRotation.y
      value: -0.39595202
      objectReference: {fileID: 0}
    - target: {fileID: 400054, guid: e4299bf26a09e9049839e1a1b75e562c, type: 3}
      propertyPath: m_LocalRotation.z
      value: -0.56499535
      objectReference: {fileID: 0}
    - target: {fileID: 400054, guid: e4299bf26a09e9049839e1a1b75e562c, type: 3}
      propertyPath: m_LocalRotation.w
      value: -0.40751973
      objectReference: {fileID: 0}
    - target: {fileID: 400054, guid: e4299bf26a09e9049839e1a1b75e562c, type: 3}
      propertyPath: m_LocalPosition.y
      value: 0.0028108184
      objectReference: {fileID: 0}
    - target: {fileID: 400058, guid: e4299bf26a09e9049839e1a1b75e562c, type: 3}
      propertyPath: m_LocalRotation.x
      value: 0.019817963
      objectReference: {fileID: 0}
    - target: {fileID: 400058, guid: e4299bf26a09e9049839e1a1b75e562c, type: 3}
      propertyPath: m_LocalRotation.y
      value: 0.95228696
      objectReference: {fileID: 0}
    - target: {fileID: 400058, guid: e4299bf26a09e9049839e1a1b75e562c, type: 3}
      propertyPath: m_LocalRotation.z
      value: -0.29825488
      objectReference: {fileID: 0}
    - target: {fileID: 400058, guid: e4299bf26a09e9049839e1a1b75e562c, type: 3}
      propertyPath: m_LocalRotation.w
      value: -0.06165135
      objectReference: {fileID: 0}
    - target: {fileID: 400058, guid: e4299bf26a09e9049839e1a1b75e562c, type: 3}
      propertyPath: m_LocalPosition.x
      value: 1.4899991e-10
      objectReference: {fileID: 0}
    - target: {fileID: 400058, guid: e4299bf26a09e9049839e1a1b75e562c, type: 3}
      propertyPath: m_LocalPosition.y
      value: 0.0030125421
      objectReference: {fileID: 0}
    - target: {fileID: 400058, guid: e4299bf26a09e9049839e1a1b75e562c, type: 3}
      propertyPath: m_LocalPosition.z
      value: 0
      objectReference: {fileID: 0}
    - target: {fileID: 400062, guid: e4299bf26a09e9049839e1a1b75e562c, type: 3}
      propertyPath: m_LocalRotation.x
      value: 0.9940751
      objectReference: {fileID: 0}
    - target: {fileID: 400062, guid: e4299bf26a09e9049839e1a1b75e562c, type: 3}
      propertyPath: m_LocalRotation.y
      value: -0.0723959
      objectReference: {fileID: 0}
    - target: {fileID: 400062, guid: e4299bf26a09e9049839e1a1b75e562c, type: 3}
      propertyPath: m_LocalRotation.z
      value: -0.07065835
      objectReference: {fileID: 0}
    - target: {fileID: 400062, guid: e4299bf26a09e9049839e1a1b75e562c, type: 3}
      propertyPath: m_LocalRotation.w
      value: 0.039760806
      objectReference: {fileID: 0}
    - target: {fileID: 400062, guid: e4299bf26a09e9049839e1a1b75e562c, type: 3}
      propertyPath: m_LocalPosition.y
      value: 0.0005846332
      objectReference: {fileID: 0}
    - target: {fileID: 400062, guid: e4299bf26a09e9049839e1a1b75e562c, type: 3}
      propertyPath: m_LocalPosition.z
      value: 7.5022893e-10
      objectReference: {fileID: 0}
    - target: {fileID: 400064, guid: e4299bf26a09e9049839e1a1b75e562c, type: 3}
      propertyPath: m_LocalRotation.x
      value: 0.07661572
      objectReference: {fileID: 0}
    - target: {fileID: 400064, guid: e4299bf26a09e9049839e1a1b75e562c, type: 3}
      propertyPath: m_LocalRotation.y
      value: -0.000000029802322
      objectReference: {fileID: 0}
    - target: {fileID: 400064, guid: e4299bf26a09e9049839e1a1b75e562c, type: 3}
      propertyPath: m_LocalRotation.z
      value: 0.000000029802322
      objectReference: {fileID: 0}
    - target: {fileID: 400064, guid: e4299bf26a09e9049839e1a1b75e562c, type: 3}
      propertyPath: m_LocalRotation.w
      value: 0.9970608
      objectReference: {fileID: 0}
    - target: {fileID: 400064, guid: e4299bf26a09e9049839e1a1b75e562c, type: 3}
      propertyPath: m_LocalPosition.x
      value: 4.7394e-15
      objectReference: {fileID: 0}
    - target: {fileID: 400064, guid: e4299bf26a09e9049839e1a1b75e562c, type: 3}
      propertyPath: m_LocalPosition.y
      value: 0.0027086444
      objectReference: {fileID: 0}
    - target: {fileID: 400064, guid: e4299bf26a09e9049839e1a1b75e562c, type: 3}
      propertyPath: m_LocalPosition.z
      value: -5.4213273e-11
      objectReference: {fileID: 0}
    - target: {fileID: 400066, guid: e4299bf26a09e9049839e1a1b75e562c, type: 3}
      propertyPath: m_LocalRotation.x
      value: -0.07263484
      objectReference: {fileID: 0}
    - target: {fileID: 400066, guid: e4299bf26a09e9049839e1a1b75e562c, type: 3}
      propertyPath: m_LocalRotation.y
      value: 0.91306
      objectReference: {fileID: 0}
    - target: {fileID: 400066, guid: e4299bf26a09e9049839e1a1b75e562c, type: 3}
      propertyPath: m_LocalRotation.z
      value: 0.39756376
      objectReference: {fileID: 0}
    - target: {fileID: 400066, guid: e4299bf26a09e9049839e1a1b75e562c, type: 3}
      propertyPath: m_LocalRotation.w
      value: 0.054668725
      objectReference: {fileID: 0}
    - target: {fileID: 400066, guid: e4299bf26a09e9049839e1a1b75e562c, type: 3}
      propertyPath: m_LocalPosition.x
      value: -0.0000000012107096
      objectReference: {fileID: 0}
    - target: {fileID: 400066, guid: e4299bf26a09e9049839e1a1b75e562c, type: 3}
      propertyPath: m_LocalPosition.y
      value: 0.0025880153
      objectReference: {fileID: 0}
    - target: {fileID: 400066, guid: e4299bf26a09e9049839e1a1b75e562c, type: 3}
      propertyPath: m_LocalPosition.z
      value: 5.9604643e-10
      objectReference: {fileID: 0}
    - target: {fileID: 400068, guid: e4299bf26a09e9049839e1a1b75e562c, type: 3}
      propertyPath: m_LocalRotation.x
      value: -0.6159646
      objectReference: {fileID: 0}
    - target: {fileID: 400068, guid: e4299bf26a09e9049839e1a1b75e562c, type: 3}
      propertyPath: m_LocalRotation.y
      value: -0.2253422
      objectReference: {fileID: 0}
    - target: {fileID: 400068, guid: e4299bf26a09e9049839e1a1b75e562c, type: 3}
      propertyPath: m_LocalRotation.z
      value: -0.17795935
      objectReference: {fileID: 0}
    - target: {fileID: 400068, guid: e4299bf26a09e9049839e1a1b75e562c, type: 3}
      propertyPath: m_LocalRotation.w
      value: 0.73357964
      objectReference: {fileID: 0}
    - target: {fileID: 400068, guid: e4299bf26a09e9049839e1a1b75e562c, type: 3}
      propertyPath: m_LocalPosition.x
      value: -1.3969979e-11
      objectReference: {fileID: 0}
    - target: {fileID: 400068, guid: e4299bf26a09e9049839e1a1b75e562c, type: 3}
      propertyPath: m_LocalPosition.y
      value: 0.0060881185
      objectReference: {fileID: 0}
    - target: {fileID: 400068, guid: e4299bf26a09e9049839e1a1b75e562c, type: 3}
      propertyPath: m_LocalPosition.z
      value: 1.4901173e-10
      objectReference: {fileID: 0}
    - target: {fileID: 400080, guid: e4299bf26a09e9049839e1a1b75e562c, type: 3}
      propertyPath: m_LocalRotation.x
      value: -0.044802997
      objectReference: {fileID: 0}
    - target: {fileID: 400080, guid: e4299bf26a09e9049839e1a1b75e562c, type: 3}
      propertyPath: m_LocalRotation.y
      value: -0.04977014
      objectReference: {fileID: 0}
    - target: {fileID: 400080, guid: e4299bf26a09e9049839e1a1b75e562c, type: 3}
      propertyPath: m_LocalRotation.z
      value: -0.35549635
      objectReference: {fileID: 0}
    - target: {fileID: 400080, guid: e4299bf26a09e9049839e1a1b75e562c, type: 3}
      propertyPath: m_LocalRotation.w
      value: 0.9322758
      objectReference: {fileID: 0}
    - target: {fileID: 400080, guid: e4299bf26a09e9049839e1a1b75e562c, type: 3}
      propertyPath: m_LocalPosition.x
      value: -0.0000000013410844
      objectReference: {fileID: 0}
    - target: {fileID: 400080, guid: e4299bf26a09e9049839e1a1b75e562c, type: 3}
      propertyPath: m_LocalPosition.y
      value: 0.0047077513
      objectReference: {fileID: 0}
    - target: {fileID: 400080, guid: e4299bf26a09e9049839e1a1b75e562c, type: 3}
      propertyPath: m_LocalPosition.z
      value: 6.332985e-10
      objectReference: {fileID: 0}
    - target: {fileID: 400082, guid: e4299bf26a09e9049839e1a1b75e562c, type: 3}
      propertyPath: m_LocalRotation.x
      value: 0.0046214787
      objectReference: {fileID: 0}
    - target: {fileID: 400082, guid: e4299bf26a09e9049839e1a1b75e562c, type: 3}
      propertyPath: m_LocalRotation.y
      value: -0.10296468
      objectReference: {fileID: 0}
    - target: {fileID: 400082, guid: e4299bf26a09e9049839e1a1b75e562c, type: 3}
      propertyPath: m_LocalRotation.z
      value: 0.033765595
      objectReference: {fileID: 0}
    - target: {fileID: 400082, guid: e4299bf26a09e9049839e1a1b75e562c, type: 3}
      propertyPath: m_LocalRotation.w
      value: 0.994101
      objectReference: {fileID: 0}
    - target: {fileID: 400082, guid: e4299bf26a09e9049839e1a1b75e562c, type: 3}
      propertyPath: m_LocalPosition.x
      value: -0.000000001732234
      objectReference: {fileID: 0}
    - target: {fileID: 400082, guid: e4299bf26a09e9049839e1a1b75e562c, type: 3}
      propertyPath: m_LocalPosition.y
      value: 0.005272278
      objectReference: {fileID: 0}
    - target: {fileID: 400082, guid: e4299bf26a09e9049839e1a1b75e562c, type: 3}
      propertyPath: m_LocalPosition.z
      value: -6.705513e-10
      objectReference: {fileID: 0}
    - target: {fileID: 400084, guid: e4299bf26a09e9049839e1a1b75e562c, type: 3}
      propertyPath: m_LocalRotation.x
      value: 0.056395195
      objectReference: {fileID: 0}
    - target: {fileID: 400084, guid: e4299bf26a09e9049839e1a1b75e562c, type: 3}
      propertyPath: m_LocalRotation.y
      value: -0.09257098
      objectReference: {fileID: 0}
    - target: {fileID: 400084, guid: e4299bf26a09e9049839e1a1b75e562c, type: 3}
      propertyPath: m_LocalRotation.z
      value: 0.0013007367
      objectReference: {fileID: 0}
    - target: {fileID: 400084, guid: e4299bf26a09e9049839e1a1b75e562c, type: 3}
      propertyPath: m_LocalRotation.w
      value: -0.99410695
      objectReference: {fileID: 0}
    - target: {fileID: 400084, guid: e4299bf26a09e9049839e1a1b75e562c, type: 3}
      propertyPath: m_LocalPosition.x
      value: -5.0174254e-10
      objectReference: {fileID: 0}
    - target: {fileID: 400084, guid: e4299bf26a09e9049839e1a1b75e562c, type: 3}
      propertyPath: m_LocalPosition.y
      value: 0.0013859982
      objectReference: {fileID: 0}
    - target: {fileID: 400084, guid: e4299bf26a09e9049839e1a1b75e562c, type: 3}
      propertyPath: m_LocalPosition.z
      value: 8.940685e-10
      objectReference: {fileID: 0}
    - target: {fileID: 400086, guid: e4299bf26a09e9049839e1a1b75e562c, type: 3}
      propertyPath: m_LocalRotation.x
      value: 0.74826837
      objectReference: {fileID: 0}
    - target: {fileID: 400086, guid: e4299bf26a09e9049839e1a1b75e562c, type: 3}
      propertyPath: m_LocalRotation.y
      value: 0.04205105
      objectReference: {fileID: 0}
    - target: {fileID: 400086, guid: e4299bf26a09e9049839e1a1b75e562c, type: 3}
      propertyPath: m_LocalRotation.z
      value: 0.003173179
      objectReference: {fileID: 0}
    - target: {fileID: 400086, guid: e4299bf26a09e9049839e1a1b75e562c, type: 3}
      propertyPath: m_LocalRotation.w
      value: -0.6620546
      objectReference: {fileID: 0}
    - target: {fileID: 400086, guid: e4299bf26a09e9049839e1a1b75e562c, type: 3}
      propertyPath: m_LocalPosition.x
      value: -5.0407073e-10
      objectReference: {fileID: 0}
    - target: {fileID: 400086, guid: e4299bf26a09e9049839e1a1b75e562c, type: 3}
      propertyPath: m_LocalPosition.y
      value: 0.0011282132
      objectReference: {fileID: 0}
    - target: {fileID: 400086, guid: e4299bf26a09e9049839e1a1b75e562c, type: 3}
      propertyPath: m_LocalPosition.z
      value: -0.000000002048907
      objectReference: {fileID: 0}
    - target: {fileID: 400088, guid: e4299bf26a09e9049839e1a1b75e562c, type: 3}
      propertyPath: m_LocalRotation.x
      value: 0.41092032
      objectReference: {fileID: 0}
    - target: {fileID: 400088, guid: e4299bf26a09e9049839e1a1b75e562c, type: 3}
      propertyPath: m_LocalRotation.y
      value: -0.030497776
      objectReference: {fileID: 0}
    - target: {fileID: 400088, guid: e4299bf26a09e9049839e1a1b75e562c, type: 3}
      propertyPath: m_LocalRotation.z
      value: -0.012934649
      objectReference: {fileID: 0}
    - target: {fileID: 400088, guid: e4299bf26a09e9049839e1a1b75e562c, type: 3}
      propertyPath: m_LocalRotation.w
      value: -0.91106915
      objectReference: {fileID: 0}
    - target: {fileID: 400088, guid: e4299bf26a09e9049839e1a1b75e562c, type: 3}
      propertyPath: m_LocalPosition.x
      value: -6.2630495e-10
      objectReference: {fileID: 0}
    - target: {fileID: 400088, guid: e4299bf26a09e9049839e1a1b75e562c, type: 3}
      propertyPath: m_LocalPosition.y
      value: 0.0010213074
      objectReference: {fileID: 0}
    - target: {fileID: 400088, guid: e4299bf26a09e9049839e1a1b75e562c, type: 3}
      propertyPath: m_LocalPosition.z
      value: 4.8428717e-10
      objectReference: {fileID: 0}
    - target: {fileID: 400092, guid: e4299bf26a09e9049839e1a1b75e562c, type: 3}
      propertyPath: m_LocalRotation.x
      value: -0.204475
      objectReference: {fileID: 0}
    - target: {fileID: 400092, guid: e4299bf26a09e9049839e1a1b75e562c, type: 3}
      propertyPath: m_LocalRotation.y
      value: -0.7735121
      objectReference: {fileID: 0}
    - target: {fileID: 400092, guid: e4299bf26a09e9049839e1a1b75e562c, type: 3}
      propertyPath: m_LocalRotation.z
      value: 0.3700256
      objectReference: {fileID: 0}
    - target: {fileID: 400092, guid: e4299bf26a09e9049839e1a1b75e562c, type: 3}
      propertyPath: m_LocalRotation.w
      value: -0.47217575
      objectReference: {fileID: 0}
    - target: {fileID: 400092, guid: e4299bf26a09e9049839e1a1b75e562c, type: 3}
      propertyPath: m_LocalPosition.x
      value: 0.0006391926
      objectReference: {fileID: 0}
    - target: {fileID: 400092, guid: e4299bf26a09e9049839e1a1b75e562c, type: 3}
      propertyPath: m_LocalPosition.y
      value: 0.00050981174
      objectReference: {fileID: 0}
    - target: {fileID: 400092, guid: e4299bf26a09e9049839e1a1b75e562c, type: 3}
      propertyPath: m_LocalPosition.z
      value: -0.00012830202
      objectReference: {fileID: 0}
    - target: {fileID: 400094, guid: e4299bf26a09e9049839e1a1b75e562c, type: 3}
      propertyPath: m_LocalRotation.x
      value: 0.62522995
      objectReference: {fileID: 0}
    - target: {fileID: 400094, guid: e4299bf26a09e9049839e1a1b75e562c, type: 3}
      propertyPath: m_LocalRotation.y
      value: -0.0043310504
      objectReference: {fileID: 0}
    - target: {fileID: 400094, guid: e4299bf26a09e9049839e1a1b75e562c, type: 3}
      propertyPath: m_LocalRotation.z
      value: 0.23761018
      objectReference: {fileID: 0}
    - target: {fileID: 400094, guid: e4299bf26a09e9049839e1a1b75e562c, type: 3}
      propertyPath: m_LocalRotation.w
      value: -0.74337757
      objectReference: {fileID: 0}
    - target: {fileID: 400094, guid: e4299bf26a09e9049839e1a1b75e562c, type: 3}
      propertyPath: m_LocalPosition.x
      value: 4.5634124e-10
      objectReference: {fileID: 0}
    - target: {fileID: 400094, guid: e4299bf26a09e9049839e1a1b75e562c, type: 3}
      propertyPath: m_LocalPosition.y
      value: 0.0010586774
      objectReference: {fileID: 0}
    - target: {fileID: 400094, guid: e4299bf26a09e9049839e1a1b75e562c, type: 3}
      propertyPath: m_LocalPosition.z
      value: 1.1175856e-10
      objectReference: {fileID: 0}
    - target: {fileID: 400104, guid: e4299bf26a09e9049839e1a1b75e562c, type: 3}
      propertyPath: m_LocalRotation.x
      value: 0.38436133
      objectReference: {fileID: 0}
    - target: {fileID: 400104, guid: e4299bf26a09e9049839e1a1b75e562c, type: 3}
      propertyPath: m_LocalRotation.y
      value: -0.029365553
      objectReference: {fileID: 0}
    - target: {fileID: 400104, guid: e4299bf26a09e9049839e1a1b75e562c, type: 3}
      propertyPath: m_LocalRotation.z
      value: 0.182454
      objectReference: {fileID: 0}
    - target: {fileID: 400104, guid: e4299bf26a09e9049839e1a1b75e562c, type: 3}
      propertyPath: m_LocalRotation.w
      value: 0.90449685
      objectReference: {fileID: 0}
    - target: {fileID: 400104, guid: e4299bf26a09e9049839e1a1b75e562c, type: 3}
      propertyPath: m_LocalPosition.x
      value: 7.916314e-11
      objectReference: {fileID: 0}
    - target: {fileID: 400104, guid: e4299bf26a09e9049839e1a1b75e562c, type: 3}
      propertyPath: m_LocalPosition.y
      value: 0.005261741
      objectReference: {fileID: 0}
    - target: {fileID: 400104, guid: e4299bf26a09e9049839e1a1b75e562c, type: 3}
      propertyPath: m_LocalPosition.z
      value: -2.3283084e-11
      objectReference: {fileID: 0}
    - target: {fileID: 400106, guid: e4299bf26a09e9049839e1a1b75e562c, type: 3}
      propertyPath: m_LocalRotation.x
      value: 0.67511624
      objectReference: {fileID: 0}
    - target: {fileID: 400106, guid: e4299bf26a09e9049839e1a1b75e562c, type: 3}
      propertyPath: m_LocalRotation.y
      value: 0.48372975
      objectReference: {fileID: 0}
    - target: {fileID: 400106, guid: e4299bf26a09e9049839e1a1b75e562c, type: 3}
      propertyPath: m_LocalRotation.z
      value: -0.46798953
      objectReference: {fileID: 0}
    - target: {fileID: 400106, guid: e4299bf26a09e9049839e1a1b75e562c, type: 3}
      propertyPath: m_LocalRotation.w
      value: 0.30200914
      objectReference: {fileID: 0}
    - target: {fileID: 400106, guid: e4299bf26a09e9049839e1a1b75e562c, type: 3}
      propertyPath: m_LocalPosition.x
      value: 0.0008828005
      objectReference: {fileID: 0}
    - target: {fileID: 400106, guid: e4299bf26a09e9049839e1a1b75e562c, type: 3}
      propertyPath: m_LocalPosition.y
      value: 0.0028108184
      objectReference: {fileID: 0}
    - target: {fileID: 400110, guid: e4299bf26a09e9049839e1a1b75e562c, type: 3}
      propertyPath: m_LocalRotation.x
      value: -0.028260851
      objectReference: {fileID: 0}
    - target: {fileID: 400110, guid: e4299bf26a09e9049839e1a1b75e562c, type: 3}
      propertyPath: m_LocalRotation.y
      value: 0.9539411
      objectReference: {fileID: 0}
    - target: {fileID: 400110, guid: e4299bf26a09e9049839e1a1b75e562c, type: 3}
      propertyPath: m_LocalRotation.z
      value: -0.29757375
      objectReference: {fileID: 0}
    - target: {fileID: 400110, guid: e4299bf26a09e9049839e1a1b75e562c, type: 3}
      propertyPath: m_LocalRotation.w
      value: 0.025446767
      objectReference: {fileID: 0}
    - target: {fileID: 400110, guid: e4299bf26a09e9049839e1a1b75e562c, type: 3}
      propertyPath: m_LocalPosition.x
      value: -3.7253464e-10
      objectReference: {fileID: 0}
    - target: {fileID: 400110, guid: e4299bf26a09e9049839e1a1b75e562c, type: 3}
      propertyPath: m_LocalPosition.y
      value: 0.0030125456
      objectReference: {fileID: 0}
    - target: {fileID: 400110, guid: e4299bf26a09e9049839e1a1b75e562c, type: 3}
      propertyPath: m_LocalPosition.z
      value: 0
      objectReference: {fileID: 0}
    - target: {fileID: 400114, guid: e4299bf26a09e9049839e1a1b75e562c, type: 3}
      propertyPath: m_LocalRotation.x
      value: 0.9676412
      objectReference: {fileID: 0}
    - target: {fileID: 400114, guid: e4299bf26a09e9049839e1a1b75e562c, type: 3}
      propertyPath: m_LocalRotation.y
      value: 0.05947284
      objectReference: {fileID: 0}
    - target: {fileID: 400114, guid: e4299bf26a09e9049839e1a1b75e562c, type: 3}
      propertyPath: m_LocalRotation.z
      value: 0.18187167
      objectReference: {fileID: 0}
    - target: {fileID: 400114, guid: e4299bf26a09e9049839e1a1b75e562c, type: 3}
      propertyPath: m_LocalRotation.w
      value: 0.16448784
      objectReference: {fileID: 0}
    - target: {fileID: 400114, guid: e4299bf26a09e9049839e1a1b75e562c, type: 3}
      propertyPath: m_LocalPosition.y
      value: 0.0005846332
      objectReference: {fileID: 0}
    - target: {fileID: 400114, guid: e4299bf26a09e9049839e1a1b75e562c, type: 3}
      propertyPath: m_LocalPosition.z
      value: 7.441947e-10
      objectReference: {fileID: 0}
    - target: {fileID: 400118, guid: e4299bf26a09e9049839e1a1b75e562c, type: 3}
      propertyPath: m_LocalRotation.x
      value: -0.0043667248
      objectReference: {fileID: 0}
    - target: {fileID: 400118, guid: e4299bf26a09e9049839e1a1b75e562c, type: 3}
      propertyPath: m_LocalRotation.y
      value: -0
      objectReference: {fileID: 0}
    - target: {fileID: 400118, guid: e4299bf26a09e9049839e1a1b75e562c, type: 3}
      propertyPath: m_LocalRotation.z
      value: -0
      objectReference: {fileID: 0}
    - target: {fileID: 400118, guid: e4299bf26a09e9049839e1a1b75e562c, type: 3}
      propertyPath: m_LocalRotation.w
      value: 0.9999905
      objectReference: {fileID: 0}
    - target: {fileID: 400118, guid: e4299bf26a09e9049839e1a1b75e562c, type: 3}
      propertyPath: m_LocalPosition.x
      value: 7.923283e-15
      objectReference: {fileID: 0}
    - target: {fileID: 400118, guid: e4299bf26a09e9049839e1a1b75e562c, type: 3}
      propertyPath: m_LocalPosition.y
      value: 0.0032195167
      objectReference: {fileID: 0}
    - target: {fileID: 400118, guid: e4299bf26a09e9049839e1a1b75e562c, type: 3}
      propertyPath: m_LocalPosition.z
      value: 3.9604947e-12
      objectReference: {fileID: 0}
    - target: {fileID: 400120, guid: e4299bf26a09e9049839e1a1b75e562c, type: 3}
      propertyPath: m_LocalRotation.x
      value: 0.09409413
      objectReference: {fileID: 0}
    - target: {fileID: 400120, guid: e4299bf26a09e9049839e1a1b75e562c, type: 3}
      propertyPath: m_LocalRotation.y
      value: -0
      objectReference: {fileID: 0}
    - target: {fileID: 400120, guid: e4299bf26a09e9049839e1a1b75e562c, type: 3}
      propertyPath: m_LocalRotation.z
      value: -0
      objectReference: {fileID: 0}
    - target: {fileID: 400120, guid: e4299bf26a09e9049839e1a1b75e562c, type: 3}
      propertyPath: m_LocalRotation.w
      value: 0.9955633
      objectReference: {fileID: 0}
    - target: {fileID: 400120, guid: e4299bf26a09e9049839e1a1b75e562c, type: 3}
      propertyPath: m_LocalPosition.x
      value: -3.8246875e-14
      objectReference: {fileID: 0}
    - target: {fileID: 400120, guid: e4299bf26a09e9049839e1a1b75e562c, type: 3}
      propertyPath: m_LocalPosition.y
      value: 0.0030527648
      objectReference: {fileID: 0}
    - target: {fileID: 400120, guid: e4299bf26a09e9049839e1a1b75e562c, type: 3}
      propertyPath: m_LocalPosition.z
      value: -3.9115547e-10
      objectReference: {fileID: 0}
    - target: {fileID: 9500000, guid: e4299bf26a09e9049839e1a1b75e562c, type: 3}
      propertyPath: m_Controller
      value: 
      objectReference: {fileID: 9100000, guid: 3dbbc6edd58a7f4479231a98e6d70957, type: 2}
    m_RemovedComponents: []
  m_SourcePrefab: {fileID: 100100000, guid: e4299bf26a09e9049839e1a1b75e562c, type: 3}
--- !u!4 &4854438933132774617 stripped
Transform:
  m_CorrespondingSourceObject: {fileID: 400000, guid: e4299bf26a09e9049839e1a1b75e562c, type: 3}
  m_PrefabInstance: {fileID: 4854438933132645977}
  m_PrefabAsset: {fileID: 0}
--- !u!95 &4854438933139972921 stripped
Animator:
  m_CorrespondingSourceObject: {fileID: 9500000, guid: e4299bf26a09e9049839e1a1b75e562c, type: 3}
  m_PrefabInstance: {fileID: 4854438933132645977}
  m_PrefabAsset: {fileID: 0}
